C:\Users\boat5\OneDrive\Documents\NetBeansProjects\DatabaseProject\src\main\java\com\mycompany\databaseproject\helper\DatabaseHelper.java
C:\Users\boat5\OneDrive\Documents\NetBeansProjects\DatabaseProject\src\main\java\com\mycompany\databaseproject\ConnectDatabase.java
C:\Users\boat5\OneDrive\Documents\NetBeansProjects\DatabaseProject\src\main\java\com\mycompany\databaseproject\TestUserService.java
C:\Users\boat5\OneDrive\Documents\NetBeansProjects\DatabaseProject\src\main\java\com\mycompany\databaseproject\DeleteDatabase.java
C:\Users\boat5\OneDrive\Documents\NetBeansProjects\DatabaseProject\src\main\java\com\mycompany\databaseproject\InsertDatabase.java
C:\Users\boat5\OneDrive\Documents\NetBeansProjects\DatabaseProject\src\main\java\com\mycompany\databaseproject\TestUserDao.java
C:\Users\boat5\OneDrive\Documents\NetBeansProjects\DatabaseProject\src\main\java\com\mycompany\databaseproject\UpdateDatabase1.java
C:\Users\boat5\OneDrive\Documents\NetBeansProjects\DatabaseProject\src\main\java\com\mycompany\databaseproject\dao\UserDao.java
C:\Users\boat5\OneDrive\Documents\NetBeansProjects\DatabaseProject\src\main\java\com\mycompany\databaseproject\service\UserService.java
C:\Users\boat5\OneDrive\Documents\NetBeansProjects\DatabaseProject\src\main\java\com\mycompany\databaseproject\SelectDatabase.java
C:\Users\boat5\OneDrive\Documents\NetBeansProjects\DatabaseProject\src\main\java\com\mycompany\databaseproject\dao\Dao.java
C:\Users\boat5\OneDrive\Documents\NetBeansProjects\DatabaseProject\src\main\java\com\mycompany\databaseproject\model\User.java
